{
    "save_data_list": [
      {
        "index": 1,
        "player_pos_x": 26.66315,
        "player_pos_y": 43.57315,
        "camera_limit": true,
        "happy_gauge": 99,
        "depress_gauge": 99,
        "memory_history_list": [ false, false, true, false, false, false, false, false, false, false, false, false, false, false, false, false, false, false, false, false, false, false, false, false, false, false, false, false, false, false, false ],
        "afed_history_list": [ false, false, false, false, false, false, false, false, false, false, false, false, false, false, false, false, false, false, false, false, false, false ],
        "sPrologue": true,
        "sNPC1": false,
        "sNPC2": true,
        "sNPC3": false,
        "sCave": true,
        "sExit": false,
        "start_time": 0.0,
        "end_time": 0.0,
        "start_date": "2022/XX/XX"
      }
    ]
}